1116.72607,1425.32049,3228.66916
1093.58149,1417.60563,3219.02558
1116.72607,1425.32049,3230.59787
1116.72607,1423.39178,3224.81173
1116.72607,1423.39178,3224.81173
1116.72607,1425.32049,3226.74044
1116.72607,1425.32049,3226.74044
1114.79736,1425.32049,3228.66916
